1,2,3,4,5,6,7,8,9,10,11,12,13,14,15,16,17,18
0,190,0,0,0,0,0,0,0,0,0,0,0,0,0,0,0,0
0,0,950,0,0,0,0,0,0,0,0,0,0,0,0,0,0,0
0,0,0,400,0,0,0,0,0,220,0,0,0,0,0,0,0,0
0,0,0,0,140,0,0,0,0,0,0,0,0,0,0,0,0,0
0,0,0,0,0,350,0,0,0,0,0,0,0,0,0,0,0,0
0,0,0,0,0,0,2200,0,0,0,0,0,0,0,0,0,240,0
0,0,0,0,0,0,0,950,0,0,0,0,0,0,0,0,0,0
0,0,0,0,0,0,0,0,800,0,0,0,0,0,0,0,0,0
0,0,0,0,0,0,0,0,0,0,0,0,0,0,0,0,0,0
0,0,0,0,0,0,0,0,0,0,450,0,0,0,0,0,0,0
0,0,0,0,0,0,0,0,0,0,0,1500,0,0,0,120,0,0
0,0,0,0,0,0,0,0,0,0,0,0,1700,0,0,0,0,0
0,0,0,0,0,0,0,0,0,0,0,0,0,300,0,0,0,0
0,0,0,0,0,0,0,0,0,0,0,0,0,0,600,0,0,0
0,0,0,0,0,0,850,900,0,0,0,0,0,0,0,0,0,0
0,0,0,0,300,0,0,0,0,0,0,0,0,0,0,0,0,0
0,0,0,0,0,0,0,0,0,0,0,0,0,0,0,0,0,1200
0,0,0,0,0,0,0,0,0,0,0,0,0,2400,0,0,0,0
